{
    "exportFormatVersion": 2,
    "exportTime": "2024-12-05 20:54:50",
    "containerVersion": {
        "path": "accounts/6000793435/containers/30912447/versions/3",
        "accountId": "6000793435",
        "containerId": "30912447",
        "containerVersionId": "3",
        "name": "2024-12-5 email and phone clicks, GA4 latest",
        "container": {
            "path": "accounts/6000793435/containers/30912447",
            "accountId": "6000793435",
            "containerId": "30912447",
            "name": "www.sullivanremodels.com",
            "publicId": "GTM-W4LG2RZ",
            "usageContext": [
                "WEB"
            ],
            "fingerprint": "1584904512275",
            "tagManagerUrl": "https://tagmanager.google.com/#/container/accounts/6000793435/containers/30912447/workspaces?apiLink=container",
            "features": {
                "supportUserPermissions": true,
                "supportEnvironments": true,
                "supportWorkspaces": true,
                "supportGtagConfigs": false,
                "supportBuiltInVariables": true,
                "supportClients": false,
                "supportFolders": true,
                "supportTags": true,
                "supportTemplates": true,
                "supportTriggers": true,
                "supportVariables": true,
                "supportVersions": true,
                "supportZones": true,
                "supportTransformations": false
            },
            "tagIds": [
                "GTM-W4LG2RZ"
            ]
        },
        "tag": [
            {
                "accountId": "6000793435",
                "containerId": "30912447",
                "tagId": "4",
                "name": "Google Analytics",
                "type": "ua",
                "parameter": [
                    {
                        "type": "BOOLEAN",
                        "key": "overrideGaSettings",
                        "value": "false"
                    },
                    {
                        "type": "TEMPLATE",
                        "key": "trackType",
                        "value": "TRACK_PAGEVIEW"
                    },
                    {
                        "type": "TEMPLATE",
                        "key": "gaSettings",
                        "value": "{{Google Analytics Settings}}"
                    }
                ],
                "fingerprint": "1733272738215",
                "firingTriggerId": [
                    "2147479553"
                ],
                "tagFiringOption": "ONCE_PER_EVENT",
                "paused": true,
                "monitoringMetadata": {
                    "type": "MAP"
                },
                "consentSettings": {
                    "consentStatus": "NOT_SET"
                }
            },
            {
                "accountId": "6000793435",
                "containerId": "30912447",
                "tagId": "7",
                "name": "Click - Contact Button",
                "type": "ua",
                "parameter": [
                    {
                        "type": "BOOLEAN",
                        "key": "nonInteraction",
                        "value": "false"
                    },
                    {
                        "type": "BOOLEAN",
                        "key": "overrideGaSettings",
                        "value": "false"
                    },
                    {
                        "type": "TEMPLATE",
                        "key": "eventCategory",
                        "value": "Click - Contact Button"
                    },
                    {
                        "type": "TEMPLATE",
                        "key": "trackType",
                        "value": "TRACK_EVENT"
                    },
                    {
                        "type": "TEMPLATE",
                        "key": "gaSettings",
                        "value": "{{Google Analytics Settings}}"
                    },
                    {
                        "type": "TEMPLATE",
                        "key": "eventAction",
                        "value": "Click - Contact Button"
                    }
                ],
                "fingerprint": "1733272738214",
                "firingTriggerId": [
                    "6"
                ],
                "tagFiringOption": "ONCE_PER_EVENT",
                "paused": true,
                "monitoringMetadata": {
                    "type": "MAP"
                },
                "consentSettings": {
                    "consentStatus": "NOT_SET"
                }
            },
            {
                "accountId": "6000793435",
                "containerId": "30912447",
                "tagId": "9",
                "name": "Click - Email",
                "type": "ua",
                "parameter": [
                    {
                        "type": "BOOLEAN",
                        "key": "nonInteraction",
                        "value": "false"
                    },
                    {
                        "type": "BOOLEAN",
                        "key": "overrideGaSettings",
                        "value": "false"
                    },
                    {
                        "type": "TEMPLATE",
                        "key": "eventCategory",
                        "value": "Click - Email"
                    },
                    {
                        "type": "TEMPLATE",
                        "key": "trackType",
                        "value": "TRACK_EVENT"
                    },
                    {
                        "type": "TEMPLATE",
                        "key": "gaSettings",
                        "value": "{{Google Analytics Settings}}"
                    },
                    {
                        "type": "TEMPLATE",
                        "key": "eventAction",
                        "value": "Click - Email"
                    }
                ],
                "fingerprint": "1733272738215",
                "firingTriggerId": [
                    "8"
                ],
                "tagFiringOption": "ONCE_PER_EVENT",
                "paused": true,
                "monitoringMetadata": {
                    "type": "MAP"
                },
                "consentSettings": {
                    "consentStatus": "NOT_SET"
                }
            },
            {
                "accountId": "6000793435",
                "containerId": "30912447",
                "tagId": "11",
                "name": "Click - Call Button",
                "type": "ua",
                "parameter": [
                    {
                        "type": "BOOLEAN",
                        "key": "nonInteraction",
                        "value": "false"
                    },
                    {
                        "type": "BOOLEAN",
                        "key": "overrideGaSettings",
                        "value": "false"
                    },
                    {
                        "type": "TEMPLATE",
                        "key": "eventCategory",
                        "value": "Click - Call Button"
                    },
                    {
                        "type": "TEMPLATE",
                        "key": "trackType",
                        "value": "TRACK_EVENT"
                    },
                    {
                        "type": "TEMPLATE",
                        "key": "gaSettings",
                        "value": "{{Google Analytics Settings}}"
                    },
                    {
                        "type": "TEMPLATE",
                        "key": "eventAction",
                        "value": "Click - Call Button"
                    }
                ],
                "fingerprint": "1733272738215",
                "firingTriggerId": [
                    "10"
                ],
                "tagFiringOption": "ONCE_PER_EVENT",
                "paused": true,
                "monitoringMetadata": {
                    "type": "MAP"
                },
                "consentSettings": {
                    "consentStatus": "NOT_SET"
                }
            },
            {
                "accountId": "6000793435",
                "containerId": "30912447",
                "tagId": "12",
                "name": "Google Analytics Tag Dec 2024",
                "type": "googtag",
                "parameter": [
                    {
                        "type": "TEMPLATE",
                        "key": "tagId",
                        "value": "G-Y2THEN6CHL"
                    }
                ],
                "fingerprint": "1733272935112",
                "firingTriggerId": [
                    "2147479573"
                ],
                "tagFiringOption": "ONCE_PER_EVENT",
                "monitoringMetadata": {
                    "type": "MAP"
                },
                "consentSettings": {
                    "consentStatus": "NOT_SET"
                }
            },
            {
                "accountId": "6000793435",
                "containerId": "30912447",
                "tagId": "16",
                "name": "Phone Button Click",
                "type": "gaawe",
                "parameter": [
                    {
                        "type": "BOOLEAN",
                        "key": "sendEcommerceData",
                        "value": "false"
                    },
                    {
                        "type": "BOOLEAN",
                        "key": "enhancedUserId",
                        "value": "false"
                    },
                    {
                        "type": "LIST",
                        "key": "eventSettingsTable",
                        "list": [
                            {
                                "type": "MAP",
                                "map": [
                                    {
                                        "type": "TEMPLATE",
                                        "key": "parameter",
                                        "value": "lead_source"
                                    },
                                    {
                                        "type": "TEMPLATE",
                                        "key": "parameterValue",
                                        "value": "phone call"
                                    }
                                ]
                            }
                        ]
                    },
                    {
                        "type": "TEMPLATE",
                        "key": "eventName",
                        "value": "generate_lead"
                    },
                    {
                        "type": "TEMPLATE",
                        "key": "measurementIdOverride",
                        "value": "{{GA Measurement ID}}"
                    },
                    {
                        "type": "TEMPLATE",
                        "key": "eventSettingsVariable",
                        "value": "{{GTM Click to GA Link}}"
                    }
                ],
                "fingerprint": "1733428589097",
                "firingTriggerId": [
                    "15"
                ],
                "tagFiringOption": "ONCE_PER_EVENT",
                "monitoringMetadata": {
                    "type": "MAP"
                },
                "consentSettings": {
                    "consentStatus": "NOT_SET"
                }
            },
            {
                "accountId": "6000793435",
                "containerId": "30912447",
                "tagId": "18",
                "name": "Email Button Click",
                "type": "gaawe",
                "parameter": [
                    {
                        "type": "BOOLEAN",
                        "key": "sendEcommerceData",
                        "value": "false"
                    },
                    {
                        "type": "BOOLEAN",
                        "key": "enhancedUserId",
                        "value": "false"
                    },
                    {
                        "type": "LIST",
                        "key": "eventSettingsTable",
                        "list": [
                            {
                                "type": "MAP",
                                "map": [
                                    {
                                        "type": "TEMPLATE",
                                        "key": "parameter",
                                        "value": "lead_source"
                                    },
                                    {
                                        "type": "TEMPLATE",
                                        "key": "parameterValue",
                                        "value": "email"
                                    }
                                ]
                            }
                        ]
                    },
                    {
                        "type": "TEMPLATE",
                        "key": "eventName",
                        "value": "generate_lead"
                    },
                    {
                        "type": "TEMPLATE",
                        "key": "measurementIdOverride",
                        "value": "{{GA Measurement ID}}"
                    },
                    {
                        "type": "TEMPLATE",
                        "key": "eventSettingsVariable",
                        "value": "{{GTM Click to GA Link}}"
                    }
                ],
                "fingerprint": "1733431834435",
                "firingTriggerId": [
                    "17"
                ],
                "tagFiringOption": "ONCE_PER_EVENT",
                "monitoringMetadata": {
                    "type": "MAP"
                },
                "consentSettings": {
                    "consentStatus": "NOT_SET"
                }
            }
        ],
        "trigger": [
            {
                "accountId": "6000793435",
                "containerId": "30912447",
                "triggerId": "6",
                "name": "Contact - Click",
                "type": "CLICK",
                "filter": [
                    {
                        "type": "CSS_SELECTOR",
                        "parameter": [
                            {
                                "type": "TEMPLATE",
                                "key": "arg0",
                                "value": "{{Click Element}}"
                            },
                            {
                                "type": "TEMPLATE",
                                "key": "arg1",
                                "value": "#contact-button"
                            }
                        ]
                    }
                ],
                "fingerprint": "1584907090562"
            },
            {
                "accountId": "6000793435",
                "containerId": "30912447",
                "triggerId": "8",
                "name": "Email - Click",
                "type": "CLICK",
                "filter": [
                    {
                        "type": "CSS_SELECTOR",
                        "parameter": [
                            {
                                "type": "TEMPLATE",
                                "key": "arg0",
                                "value": "{{Click Element}}"
                            },
                            {
                                "type": "TEMPLATE",
                                "key": "arg1",
                                "value": ".mikeEmail"
                            }
                        ]
                    }
                ],
                "fingerprint": "1584909261714"
            },
            {
                "accountId": "6000793435",
                "containerId": "30912447",
                "triggerId": "10",
                "name": "Call Button - Click",
                "type": "CLICK",
                "filter": [
                    {
                        "type": "CSS_SELECTOR",
                        "parameter": [
                            {
                                "type": "TEMPLATE",
                                "key": "arg0",
                                "value": "{{Click Element}}"
                            },
                            {
                                "type": "TEMPLATE",
                                "key": "arg1",
                                "value": "#call-button"
                            }
                        ]
                    }
                ],
                "fingerprint": "1584910638938"
            },
            {
                "accountId": "6000793435",
                "containerId": "30912447",
                "triggerId": "15",
                "name": "Tel Link Clicks",
                "type": "LINK_CLICK",
                "filter": [
                    {
                        "type": "STARTS_WITH",
                        "parameter": [
                            {
                                "type": "TEMPLATE",
                                "key": "arg0",
                                "value": "{{Click URL}}"
                            },
                            {
                                "type": "TEMPLATE",
                                "key": "arg1",
                                "value": "tel:"
                            }
                        ]
                    }
                ],
                "waitForTags": {
                    "type": "BOOLEAN",
                    "value": "false"
                },
                "checkValidation": {
                    "type": "BOOLEAN",
                    "value": "false"
                },
                "waitForTagsTimeout": {
                    "type": "TEMPLATE",
                    "value": "2000"
                },
                "uniqueTriggerId": {
                    "type": "TEMPLATE"
                },
                "fingerprint": "1733429685600"
            },
            {
                "accountId": "6000793435",
                "containerId": "30912447",
                "triggerId": "17",
                "name": "Email Link Clicks",
                "type": "LINK_CLICK",
                "filter": [
                    {
                        "type": "STARTS_WITH",
                        "parameter": [
                            {
                                "type": "TEMPLATE",
                                "key": "arg0",
                                "value": "{{Click URL}}"
                            },
                            {
                                "type": "TEMPLATE",
                                "key": "arg1",
                                "value": "mailto:"
                            }
                        ]
                    }
                ],
                "waitForTags": {
                    "type": "BOOLEAN",
                    "value": "false"
                },
                "checkValidation": {
                    "type": "BOOLEAN",
                    "value": "false"
                },
                "waitForTagsTimeout": {
                    "type": "TEMPLATE",
                    "value": "2000"
                },
                "uniqueTriggerId": {
                    "type": "TEMPLATE"
                },
                "fingerprint": "1733431786179"
            }
        ],
        "variable": [
            {
                "accountId": "6000793435",
                "containerId": "30912447",
                "variableId": "3",
                "name": "Google Analytics Settings",
                "type": "gas",
                "parameter": [
                    {
                        "type": "TEMPLATE",
                        "key": "cookieDomain",
                        "value": "auto"
                    },
                    {
                        "type": "BOOLEAN",
                        "key": "doubleClick",
                        "value": "false"
                    },
                    {
                        "type": "BOOLEAN",
                        "key": "setTrackerName",
                        "value": "false"
                    },
                    {
                        "type": "BOOLEAN",
                        "key": "useDebugVersion",
                        "value": "false"
                    },
                    {
                        "type": "BOOLEAN",
                        "key": "useHashAutoLink",
                        "value": "false"
                    },
                    {
                        "type": "BOOLEAN",
                        "key": "decorateFormsAutoLink",
                        "value": "false"
                    },
                    {
                        "type": "BOOLEAN",
                        "key": "enableLinkId",
                        "value": "false"
                    },
                    {
                        "type": "BOOLEAN",
                        "key": "enableEcommerce",
                        "value": "false"
                    },
                    {
                        "type": "TEMPLATE",
                        "key": "trackingId",
                        "value": "UA-154695863-1"
                    }
                ],
                "fingerprint": "1584905226116"
            },
            {
                "accountId": "6000793435",
                "containerId": "30912447",
                "variableId": "13",
                "name": "GA Measurement ID",
                "type": "c",
                "parameter": [
                    {
                        "type": "TEMPLATE",
                        "key": "value",
                        "value": "G-Y2THEN6CHL"
                    }
                ],
                "fingerprint": "1733356125440",
                "formatValue": {}
            },
            {
                "accountId": "6000793435",
                "containerId": "30912447",
                "variableId": "14",
                "name": "GTM Click to GA Link",
                "type": "gtes",
                "parameter": [
                    {
                        "type": "LIST",
                        "key": "eventSettingsTable",
                        "list": [
                            {
                                "type": "MAP",
                                "map": [
                                    {
                                        "type": "TEMPLATE",
                                        "key": "parameter",
                                        "value": "link_url"
                                    },
                                    {
                                        "type": "TEMPLATE",
                                        "key": "parameterValue",
                                        "value": "{{Click URL}}"
                                    }
                                ]
                            },
                            {
                                "type": "MAP",
                                "map": [
                                    {
                                        "type": "TEMPLATE",
                                        "key": "parameter",
                                        "value": "link_text"
                                    },
                                    {
                                        "type": "TEMPLATE",
                                        "key": "parameterValue",
                                        "value": "{{Click Text}}"
                                    }
                                ]
                            },
                            {
                                "type": "MAP",
                                "map": [
                                    {
                                        "type": "TEMPLATE",
                                        "key": "parameter",
                                        "value": "link_classes"
                                    },
                                    {
                                        "type": "TEMPLATE",
                                        "key": "parameterValue",
                                        "value": "{{Click Classes}}"
                                    }
                                ]
                            },
                            {
                                "type": "MAP",
                                "map": [
                                    {
                                        "type": "TEMPLATE",
                                        "key": "parameter",
                                        "value": "link_id"
                                    },
                                    {
                                        "type": "TEMPLATE",
                                        "key": "parameterValue",
                                        "value": "{{Click ID}}"
                                    }
                                ]
                            },
                            {
                                "type": "MAP",
                                "map": [
                                    {
                                        "type": "TEMPLATE",
                                        "key": "parameter",
                                        "value": "link_target"
                                    },
                                    {
                                        "type": "TEMPLATE",
                                        "key": "parameterValue",
                                        "value": "{{Click Target}}"
                                    }
                                ]
                            },
                            {
                                "type": "MAP",
                                "map": [
                                    {
                                        "type": "TEMPLATE",
                                        "key": "parameter",
                                        "value": "page_location"
                                    },
                                    {
                                        "type": "TEMPLATE",
                                        "key": "parameterValue",
                                        "value": "{{Page URL}}"
                                    }
                                ]
                            },
                            {
                                "type": "MAP",
                                "map": [
                                    {
                                        "type": "TEMPLATE",
                                        "key": "parameter",
                                        "value": "page_path"
                                    },
                                    {
                                        "type": "TEMPLATE",
                                        "key": "parameterValue",
                                        "value": "{{Page Path}}"
                                    }
                                ]
                            }
                        ]
                    }
                ],
                "fingerprint": "1733428826973"
            }
        ],
        "builtInVariable": [
            {
                "accountId": "6000793435",
                "containerId": "30912447",
                "type": "PAGE_URL",
                "name": "Page URL"
            },
            {
                "accountId": "6000793435",
                "containerId": "30912447",
                "type": "PAGE_HOSTNAME",
                "name": "Page Hostname"
            },
            {
                "accountId": "6000793435",
                "containerId": "30912447",
                "type": "PAGE_PATH",
                "name": "Page Path"
            },
            {
                "accountId": "6000793435",
                "containerId": "30912447",
                "type": "REFERRER",
                "name": "Referrer"
            },
            {
                "accountId": "6000793435",
                "containerId": "30912447",
                "type": "EVENT",
                "name": "Event"
            },
            {
                "accountId": "6000793435",
                "containerId": "30912447",
                "type": "CLICK_ELEMENT",
                "name": "Click Element"
            },
            {
                "accountId": "6000793435",
                "containerId": "30912447",
                "type": "CLICK_CLASSES",
                "name": "Click Classes"
            },
            {
                "accountId": "6000793435",
                "containerId": "30912447",
                "type": "CLICK_ID",
                "name": "Click ID"
            },
            {
                "accountId": "6000793435",
                "containerId": "30912447",
                "type": "CLICK_TARGET",
                "name": "Click Target"
            },
            {
                "accountId": "6000793435",
                "containerId": "30912447",
                "type": "CLICK_URL",
                "name": "Click URL"
            },
            {
                "accountId": "6000793435",
                "containerId": "30912447",
                "type": "CLICK_TEXT",
                "name": "Click Text"
            },
            {
                "accountId": "6000793435",
                "containerId": "30912447",
                "type": "FORM_ELEMENT",
                "name": "Form Element"
            },
            {
                "accountId": "6000793435",
                "containerId": "30912447",
                "type": "FORM_CLASSES",
                "name": "Form Classes"
            },
            {
                "accountId": "6000793435",
                "containerId": "30912447",
                "type": "FORM_ID",
                "name": "Form ID"
            },
            {
                "accountId": "6000793435",
                "containerId": "30912447",
                "type": "FORM_URL",
                "name": "Form URL"
            },
            {
                "accountId": "6000793435",
                "containerId": "30912447",
                "type": "ERROR_MESSAGE",
                "name": "Error Message"
            },
            {
                "accountId": "6000793435",
                "containerId": "30912447",
                "type": "CONTAINER_VERSION",
                "name": "Container Version"
            },
            {
                "accountId": "6000793435",
                "containerId": "30912447",
                "type": "DEBUG_MODE",
                "name": "Debug Mode"
            },
            {
                "accountId": "6000793435",
                "containerId": "30912447",
                "type": "CONTAINER_ID",
                "name": "Container ID"
            },
            {
                "accountId": "6000793435",
                "containerId": "30912447",
                "type": "ENVIRONMENT_NAME",
                "name": "Environment Name"
            },
            {
                "accountId": "6000793435",
                "containerId": "30912447",
                "type": "VIDEO_PROVIDER",
                "name": "Video Provider"
            },
            {
                "accountId": "6000793435",
                "containerId": "30912447",
                "type": "VIDEO_URL",
                "name": "Video URL"
            },
            {
                "accountId": "6000793435",
                "containerId": "30912447",
                "type": "VIDEO_TITLE",
                "name": "Video Title"
            },
            {
                "accountId": "6000793435",
                "containerId": "30912447",
                "type": "VIDEO_DURATION",
                "name": "Video Duration"
            },
            {
                "accountId": "6000793435",
                "containerId": "30912447",
                "type": "VIDEO_PERCENT",
                "name": "Video Percent"
            },
            {
                "accountId": "6000793435",
                "containerId": "30912447",
                "type": "VIDEO_VISIBLE",
                "name": "Video Visible"
            },
            {
                "accountId": "6000793435",
                "containerId": "30912447",
                "type": "VIDEO_CURRENT_TIME",
                "name": "Video Current Time"
            },
            {
                "accountId": "6000793435",
                "containerId": "30912447",
                "type": "SCROLL_DEPTH_THRESHOLD",
                "name": "Scroll Depth Threshold"
            },
            {
                "accountId": "6000793435",
                "containerId": "30912447",
                "type": "SCROLL_DEPTH_UNITS",
                "name": "Scroll Depth Units"
            },
            {
                "accountId": "6000793435",
                "containerId": "30912447",
                "type": "SCROLL_DEPTH_DIRECTION",
                "name": "Scroll Direction"
            },
            {
                "accountId": "6000793435",
                "containerId": "30912447",
                "type": "ELEMENT_VISIBILITY_RATIO",
                "name": "Percent Visible"
            },
            {
                "accountId": "6000793435",
                "containerId": "30912447",
                "type": "ELEMENT_VISIBILITY_TIME",
                "name": "On-Screen Duration"
            }
        ],
        "fingerprint": "1733432064762",
        "tagManagerUrl": "https://tagmanager.google.com/#/versions/accounts/6000793435/containers/30912447/versions/3?apiLink=version"
    }
}